fragment_program backgrounds/skybox/starfield-shader-fs-120 glsl
{
  source starfield-shader.fs
}

vertex_program backgrounds/skybox/starfield-shader-vs-120 glsl
{
  source starfield-shader.vs
}

material backgrounds/skybox/starfield-001
{
  technique
  {
    pass
    {
      depth_write off
      
      vertex_program_ref backgrounds/skybox/starfield-shader-vs-120
      {
      }
      
      fragment_program_ref backgrounds/skybox/starfield-shader-fs-120
      {
        param_named colormap int 0
        param_named starfield int 1
      }
      
      texture_unit
      {
        cubic_texture test.png separateUV
        tex_address_mode clamp
      }
      
      texture_unit
      {
        texture starfield-combined-001.png 2d
        filtering anisotropic
        max_anisotropy 5
      }

    }
  }
}
